<svg xmlns="http://www.w3.org/2000/svg" id="Group_256" width="127.806" height="100.796" data-name="Group 256" viewBox="0 0 127.806 100.796">
    <defs>
        <style>
            .cls-1,.cls-3{fill:none}.cls-2{clip-path:url(#clip-path)}.cls-3{stroke:#728080;stroke-width:.649px}.cls-4{fill:#aaa093}
        </style>
        <clipPath id="clip-path">
            <path id="Path_276" d="M0 15.959h127.806v-100.8H0z" class="cls-1" data-name="Path 276" transform="translate(0 84.837)"/>
        </clipPath>
    </defs>
    <g id="Group_243" class="cls-2" data-name="Group 243">
        <g id="Group_242" data-name="Group 242" transform="translate(22.1 .385)">
            <path id="Path_275" d="M12.634 1.771a.99.99 0 0 1-.135.242c-.3.4-.629.777-.939 1.167l-1.511 1.9-3.023 3.8Q4 12.673 1 16.484q-.844 1.068-1.682 2.138a9.976 9.976 0 0 1-8.174 3.962 16.011 16.011 0 0 0-11.538 4.907 2.317 2.317 0 0 0-.634 2.641 9.022 9.022 0 0 0 4.875 5.361 17.861 17.861 0 0 1 4.834 3.753q8.187 8.341 16.4 16.653a4.121 4.121 0 0 1 .227 5.853 4.136 4.136 0 0 1-5.842.4A49.815 49.815 0 0 1-4.6 58.217q-10.67-10.673-21.283-21.405c-.781-.792-1.176-.694-1.9.03q-9.863 9.925-19.787 19.788-3.153 3.146-6.318 6.277a4.155 4.155 0 0 1-5.547.253 4.1 4.1 0 0 1-.814-5.559 10.284 10.284 0 0 1 1.218-1.434q12.63-12.646 25.275-25.28c.967-.967.954-.961-.007-1.924q-16.362-16.4-32.714-32.815c-.295-.3-.882-.544-.63-1.08a1.636 1.636 0 0 1 1.3-.954 11.421 11.421 0 0 1 4.037.405c4.825 1.147 9.112 3.5 13.272 6.093a139.646 139.646 0 0 1 20.64 16.251c1.591 1.47 3.185 2.937 4.745 4.439.539.519.819.416 1.179-.182a15.506 15.506 0 0 0 2.431-8.445A10.946 10.946 0 0 1-14.886 3.2C-9.724-.751-4.626-4.782.5-8.779c1.129-.879 1.1-.848 2.111.125.57.549.55.905-.024 1.434C.118-4.948-2.315-2.639-4.763-.345q-4.7 4.407-9.409 8.815c-.493.463-1.3.822-.337 1.688 1.188 1.069 1.135 1.13 2.174.091Q-4.29 2.208 3.762-5.825c.272-.271.677-.75 1.145-.46a3.461 3.461 0 0 1 1.256 1.267c.219.343-.421.848-.707 1.136Q-2.36 3.943-10.187 11.757c-.173.173-.89.915-1.059 1.093-.259.273.52 1.34 1.215 1.485.492.1.562-.131.814-.381C-3.944 8.7 1.307 3.317 6.572-1.945c.149-.149.579-.544.73-.689.651-.625 1.223-.6 2.034.548.286.4-.168.821-.4 1.053C7.415.508 5.881 2.037 4.35 3.569.448 7.476-3.437 11.4-7.373 15.27c-.7.693-.822 1.1-.032 1.8 1.082.952 1.03 1 2.029-.058C-.288 11.627 4.893 6.38 9.984 1c.259-.274.682-.886 1.125-.847a2.015 2.015 0 0 1 1.041.654c.226.232.434.316.512.644a.556.556 0 0 1-.028.32z" class="cls-3" data-name="Path 275" transform="translate(67.159 9.412)"/>
        </g>
    </g>
    <g id="Group_244" data-name="Group 244" transform="translate(0 93.838)">
        <path id="Path_277" d="M0 0v.747h.853v5.339H0v.757h2.753v-.757h-.93V3.9h2.363v-.8H1.823V.834H3.9v.785h.844V0z" class="cls-4" data-name="Path 277"/>
    </g>
    <g id="Group_251" class="cls-2" data-name="Group 251">
        <g id="Group_245" data-name="Group 245" transform="translate(10.587 93.722)">
            <path id="Path_278" d="M.557 0a3.456 3.456 0 0 1 3.517 3.488A3.508 3.508 0 0 1 .557 7.074 3.5 3.5 0 0 1-2.96 3.488 3.45 3.45 0 0 1 .557 0m0 6.21a2.6 2.6 0 0 0 2.51-2.722A2.553 2.553 0 0 0 .557.853a2.555 2.555 0 0 0-2.52 2.635A2.6 2.6 0 0 0 .557 6.21" class="cls-4" data-name="Path 278" transform="translate(2.96)"/>
        </g>
        <g id="Group_246" data-name="Group 246" transform="translate(23.596 93.722)">
            <path id="Path_279" d="M.557 0a3.456 3.456 0 0 1 3.517 3.488A3.508 3.508 0 0 1 .557 7.074 3.5 3.5 0 0 1-2.96 3.488 3.45 3.45 0 0 1 .557 0m0 6.21a2.6 2.6 0 0 0 2.51-2.722A2.553 2.553 0 0 0 .557.853a2.555 2.555 0 0 0-2.52 2.635A2.6 2.6 0 0 0 .557 6.21" class="cls-4" data-name="Path 279" transform="translate(2.96)"/>
        </g>
        <g id="Group_247" data-name="Group 247" transform="translate(36.586 93.839)">
            <path id="Path_280" d="M0 .964h.853v-5.34H0v-.746h2.917a4.841 4.841 0 0 1 1.453.165A3.176 3.176 0 0 1 6.531-1.7 3.14 3.14 0 0 1 4.37 1.535a4.51 4.51 0 0 1-1.444.184H0zm2.868-.04A3.124 3.124 0 0 0 4.031.75 2.386 2.386 0 0 0 5.524-1.7a2.421 2.421 0 0 0-1.483-2.473 3.278 3.278 0 0 0-1.173-.154H1.823V.924z" class="cls-4" data-name="Path 280" transform="translate(0 5.122)"/>
        </g>
        <g id="Group_248" data-name="Group 248" transform="translate(56.604 93.722)">
            <path id="Path_281" d="M.2.52V.5A1.522 1.522 0 0 1-.754-1c0-1.133.941-1.763 2.191-1.763a4.265 4.265 0 0 1 .852.107l-.241.765a3.032 3.032 0 0 0-.513-.058C.8-1.951.225-1.572.225-.9.225-.459.429.191 1.5.191h1.448v-.95h.94v.95h.9v.794h-.9v.93a2.231 2.231 0 0 1-2.451 2.394c-1.493 0-2.481-.882-2.481-2.026A1.819 1.819 0 0 1 .2.52m1.24 2.926a1.386 1.386 0 0 0 1.508-1.57V.985h-1.5c-.981 0-1.513.465-1.513 1.221 0 .708.561 1.24 1.5 1.24" class="cls-4" data-name="Path 281" transform="translate(1.044 2.765)"/>
        </g>
        <g id="Group_249" data-name="Group 249" transform="translate(75.691 93.839)">
            <path id="Path_282" d="M0 .964h.853v-5.34H0v-.746h2.917a4.853 4.853 0 0 1 1.454.165A3.176 3.176 0 0 1 6.531-1.7a3.14 3.14 0 0 1-2.16 3.235 4.522 4.522 0 0 1-1.445.184H0zm2.868-.04A3.124 3.124 0 0 0 4.031.75 2.386 2.386 0 0 0 5.524-1.7a2.421 2.421 0 0 0-1.483-2.473 3.278 3.278 0 0 0-1.173-.154H1.823V.924z" class="cls-4" data-name="Path 282" transform="translate(0 5.122)"/>
        </g>
        <g id="Group_250" data-name="Group 250" transform="translate(88.216 93.839)">
            <path id="Path_283" d="M0 .964h.853v-5.34H0v-.746h2.966a3.919 3.919 0 0 1 1.259.145A1.735 1.735 0 0 1 5.417-3.2 1.854 1.854 0 0 1 4-1.284v.02a.817.817 0 0 1 .29.318L5.262.741c.107.183.232.222.474.222h.2v.756h-.578c-.581 0-.716-.106-.949-.513L3.353-.664a.659.659 0 0 0-.718-.378h-.812V.964h.842v.756H0zm3.2-2.8a1.178 1.178 0 0 0 1.238-1.29A1.05 1.05 0 0 0 3.8-4.2a2.384 2.384 0 0 0-.842-.126H1.823v2.49z" class="cls-4" data-name="Path 283" transform="translate(0 5.122)"/>
        </g>
    </g>
    <g id="Group_252" data-name="Group 252" transform="translate(100.014 93.838)">
        <path id="Path_285" d="M0 0v.747h.853v5.339H0v.757h2.684v-.757h-.861V.747h.861V0z" class="cls-4" data-name="Path 285"/>
    </g>
    <g id="Group_255" class="cls-2" data-name="Group 255">
        <g id="Group_253" data-name="Group 253" transform="translate(108.758 93.839)">
            <path id="Path_286" d="M0 .964h.853v-5.34H0v-.746h1.813l3.362 4.9a4.175 4.175 0 0 1 .232.493h.03a4.976 4.976 0 0 1-.049-.551v-4.1h-.872v-.746h2.7v.746h-.86v6.1h-.949l-3.362-4.9a2.784 2.784 0 0 1-.232-.493h-.03a3.792 3.792 0 0 1 .039.551V.964H2.7v.756H0z" class="cls-4" data-name="Path 286" transform="translate(0 5.122)"/>
        </g>
        <g id="Group_254" data-name="Group 254" transform="translate(121.923 93.839)">
            <path id="Path_287" d="M0 .964h.853v-5.34H0v-.746h2.568v.746h-.745v2.152H2.7l1.5-2.152h-.63v-.746h2.312v.746h-.659L3.449-1.9v.019a.992.992 0 0 1 .389.455L5.068.71a.479.479 0 0 0 .485.253h.32v.756h-.688c-.573 0-.737-.134-.95-.513L2.917-1.16a.528.528 0 0 0-.533-.271h-.561V.964h.842v.756H0z" class="cls-4" data-name="Path 287" transform="translate(0 5.122)"/>
        </g>
    </g>
</svg>
